127.0.0.1 - - [07/Jun/2021:10:53:50 -0400] "GET /Support_2021/rdPage.aspx?rdReport=SI26330.Sample HTTP/1.1" 200 26709
127.0.0.1 - - [07/Jun/2021:10:53:50 -0400] "GET /favicon.ico HTTP/1.1" 200 21630
192.168.3.124 - - [07/Jun/2021:10:53:58 -0400] "GET / HTTP/1.1" 200 11488
192.168.3.124 - - [07/Jun/2021:10:54:03 -0400] "GET /HNAP1/ HTTP/1.1" 404 761
127.0.0.1 - - [07/Jun/2021:10:59:47 -0400] "GET /Support_2021/rdPage.aspx?rdReport=SI26330.Sample HTTP/1.1" 200 9168
127.0.0.1 - - [07/Jun/2021:10:59:47 -0400] "GET /Support_2021/rdTemplate/rdInputTextDelimiter/rdInputTextDelimiter.css HTTP/1.1" 200 1097
127.0.0.1 - - [07/Jun/2021:10:59:47 -0400] "GET /Support_2021/rdTemplate/rdInputTextDelimiter/rdInputTextDelimiter.js?v=12.8.702.127 HTTP/1.1" 200 59119
127.0.0.1 - - [07/Jun/2021:10:59:47 -0400] "GET /Support_2021/rdTemplate/rdTheme/Signal/Theme.css HTTP/1.1" 200 52458
127.0.0.1 - - [07/Jun/2021:10:59:47 -0400] "GET /Support_2021/rdTemplate/rdPopup/rdPopupPanel.css HTTP/1.1" 200 1252
127.0.0.1 - - [07/Jun/2021:10:59:47 -0400] "GET /Support_2021/rdTemplate/rdYui/rdTabs.css HTTP/1.1" 200 8131
127.0.0.1 - - [07/Jun/2021:10:59:47 -0400] "GET /Support_2021/rdTemplate/rdScript.min.js?v=12.8.702.127 HTTP/1.1" 200 601951
127.0.0.1 - - [07/Jun/2021:10:59:47 -0400] "GET /Support_2021/rdTemplate/rdChartCanvas.min.js?v=12.8.702.127 HTTP/1.1" 200 370879
127.0.0.1 - - [07/Jun/2021:10:59:47 -0400] "GET /Support_2021/rdTemplate/rdPopup/rdPopupMenu.css HTTP/1.1" 200 581
127.0.0.1 - - [07/Jun/2021:10:59:47 -0400] "GET /Support_2021/rdTemplate/rdYui.min.js?v=12.8.702.127 HTTP/1.1" 200 504407
127.0.0.1 - - [07/Jun/2021:10:59:47 -0400] "GET /Support_2021/rdDownload/rdLocalizationInfo_4F2F5E1B5F9062AE9CA61596DE42173C.js HTTP/1.1" 200 1254
127.0.0.1 - - [07/Jun/2021:10:59:47 -0400] "GET /Support_2021/rdTemplate/rdBlank.gif HTTP/1.1" 200 55
127.0.0.1 - - [07/Jun/2021:10:59:47 -0400] "GET /Support_2021/_Images/export.png HTTP/1.1" 404 755
127.0.0.1 - - [07/Jun/2021:10:59:47 -0400] "GET /Support_2021/rdTemplate/rdDebug.png HTTP/1.1" 200 1430
127.0.0.1 - - [07/Jun/2021:10:59:48 -0400] "GET /Support_2021/rdTemplate/yui3/build/widget-base/assets/skins/sam/widget-base.css HTTP/1.1" 200 468
127.0.0.1 - - [07/Jun/2021:10:59:48 -0400] "GET /Support_2021/rdTemplate/yui3/build/resize-base/assets/skins/sam/resize-base.css HTTP/1.1" 200 2304
127.0.0.1 - - [07/Jun/2021:10:59:48 -0400] "GET /Support_2021/_Images/export.png HTTP/1.1" 404 755
127.0.0.1 - - [07/Jun/2021:10:59:48 -0400] "GET /favicon.ico HTTP/1.1" 200 21630
127.0.0.1 - - [07/Jun/2021:10:59:48 -0400] "GET /Support_2021/rdTemplate/yui3/build/widget-modality/assets/skins/sam/widget-modality.css HTTP/1.1" 200 332
127.0.0.1 - - [07/Jun/2021:10:59:48 -0400] "GET /Support_2021/rdTemplate/yui3/build/widget-stack/assets/skins/sam/widget-stack.css HTTP/1.1" 200 384
127.0.0.1 - - [07/Jun/2021:10:59:48 -0400] "GET /Support_2021/rdTemplate/yui3/build/cssbutton/cssbutton-min.css HTTP/1.1" 200 5380
127.0.0.1 - - [07/Jun/2021:10:59:48 -0400] "GET /Support_2021/rdTemplate/yui3/build/panel/assets/skins/sam/panel.css HTTP/1.1" 200 2071
127.0.0.1 - - [07/Jun/2021:10:59:48 -0400] "GET /Support_2021/rdTemplate/yui3/2in3/yui2-skin-sam-tabview/assets/skins/sam/yui2-skin-sam-tabview-min.css HTTP/1.1" 200 8007
127.0.0.1 - - [07/Jun/2021:10:59:48 -0400] "GET /Support_2021/rdTemplate/rdYui/wait-panel.css HTTP/1.1" 200 622
127.0.0.1 - - [07/Jun/2021:10:59:48 -0400] "GET /Support_2021/rdTemplate/yui3/2in3/yui2-skin-sam-menu/assets/skins/sam/yui2-skin-sam-menu-min.css HTTP/1.1" 200 9043
127.0.0.1 - - [07/Jun/2021:11:00:37 -0400] "POST /Support_2021/rdPage.aspx?rdReport=SI26330.Sample&rdReportFormat=PDF&rdExportTableID=dtdet&rdKeepTabHeadMIR=True&rdExportFilename=Details.pdf HTTP/1.1" 302 197
127.0.0.1 - - [07/Jun/2021:11:00:37 -0400] "GET /Support_2021/rdDownload/rdExport-17227034-2db0-496b-af49-cab46aba94c6/Details.pdf HTTP/1.1" 200 5244780
127.0.0.1 - - [07/Jun/2021:11:01:24 -0400] "GET /Support_2021/rdPage.aspx?rdReport=SI26330.Sample HTTP/1.1" 200 9168
127.0.0.1 - - [07/Jun/2021:11:01:24 -0400] "GET /Support_2021/rdTemplate/rdPopup/rdPopupMenu.css HTTP/1.1" 200 581
127.0.0.1 - - [07/Jun/2021:11:01:24 -0400] "GET /Support_2021/rdTemplate/rdPopup/rdPopupPanel.css HTTP/1.1" 200 1252
127.0.0.1 - - [07/Jun/2021:11:01:24 -0400] "GET /Support_2021/rdTemplate/rdTheme/Signal/Theme.css HTTP/1.1" 200 52458
127.0.0.1 - - [07/Jun/2021:11:01:24 -0400] "GET /Support_2021/rdTemplate/rdYui.min.js?v=12.8.702.127 HTTP/1.1" 200 504407
127.0.0.1 - - [07/Jun/2021:11:01:24 -0400] "GET /Support_2021/rdTemplate/rdInputTextDelimiter/rdInputTextDelimiter.js?v=12.8.702.127 HTTP/1.1" 200 59119
127.0.0.1 - - [07/Jun/2021:11:01:24 -0400] "GET /Support_2021/rdTemplate/rdYui/rdTabs.css HTTP/1.1" 200 8131
127.0.0.1 - - [07/Jun/2021:11:01:24 -0400] "GET /Support_2021/rdTemplate/rdChartCanvas.min.js?v=12.8.702.127 HTTP/1.1" 200 370879
127.0.0.1 - - [07/Jun/2021:11:01:24 -0400] "GET /Support_2021/rdDownload/rdLocalizationInfo_4F2F5E1B5F9062AE9CA61596DE42173C.js HTTP/1.1" 200 1254
127.0.0.1 - - [07/Jun/2021:11:01:24 -0400] "GET /Support_2021/rdTemplate/rdInputTextDelimiter/rdInputTextDelimiter.css HTTP/1.1" 200 1097
127.0.0.1 - - [07/Jun/2021:11:01:24 -0400] "GET /Support_2021/rdTemplate/rdScript.min.js?v=12.8.702.127 HTTP/1.1" 200 601951
127.0.0.1 - - [07/Jun/2021:11:01:24 -0400] "GET /Support_2021/_Images/export.png HTTP/1.1" 404 755
127.0.0.1 - - [07/Jun/2021:11:01:24 -0400] "GET /Support_2021/rdTemplate/yui3/build/widget-base/assets/skins/sam/widget-base.css HTTP/1.1" 200 468
127.0.0.1 - - [07/Jun/2021:11:01:24 -0400] "GET /Support_2021/rdTemplate/yui3/build/resize-base/assets/skins/sam/resize-base.css HTTP/1.1" 200 2304
127.0.0.1 - - [07/Jun/2021:11:01:24 -0400] "GET /Support_2021/_Images/export.png HTTP/1.1" 404 755
127.0.0.1 - - [07/Jun/2021:11:01:24 -0400] "GET /Support_2021/rdTemplate/rdBlank.gif HTTP/1.1" 200 55
127.0.0.1 - - [07/Jun/2021:11:01:24 -0400] "GET /Support_2021/rdTemplate/rdDebug.png HTTP/1.1" 200 1430
127.0.0.1 - - [07/Jun/2021:11:01:24 -0400] "GET /favicon.ico HTTP/1.1" 200 21630
127.0.0.1 - - [07/Jun/2021:11:01:24 -0400] "GET /Support_2021/rdTemplate/yui3/build/cssbutton/cssbutton-min.css HTTP/1.1" 200 5380
127.0.0.1 - - [07/Jun/2021:11:01:24 -0400] "GET /Support_2021/rdTemplate/yui3/build/widget-modality/assets/skins/sam/widget-modality.css HTTP/1.1" 200 332
127.0.0.1 - - [07/Jun/2021:11:01:24 -0400] "GET /Support_2021/rdTemplate/yui3/build/panel/assets/skins/sam/panel.css HTTP/1.1" 200 2071
127.0.0.1 - - [07/Jun/2021:11:01:24 -0400] "GET /Support_2021/rdTemplate/rdYui/wait-panel.css HTTP/1.1" 200 622
127.0.0.1 - - [07/Jun/2021:11:01:24 -0400] "GET /Support_2021/rdTemplate/yui3/2in3/yui2-skin-sam-tabview/assets/skins/sam/yui2-skin-sam-tabview-min.css HTTP/1.1" 200 8007
127.0.0.1 - - [07/Jun/2021:11:01:24 -0400] "GET /Support_2021/rdTemplate/yui3/2in3/yui2-skin-sam-menu/assets/skins/sam/yui2-skin-sam-menu-min.css HTTP/1.1" 200 9043
127.0.0.1 - - [07/Jun/2021:11:01:24 -0400] "GET /Support_2021/rdTemplate/yui3/build/widget-stack/assets/skins/sam/widget-stack.css HTTP/1.1" 200 384
127.0.0.1 - - [07/Jun/2021:11:01:29 -0400] "POST /Support_2021/rdPage.aspx?rdReport=SI26330.Sample&rdReportFormat=PDF&rdExportTableID=dtdet&rdKeepTabHeadMIR=True&rdExportFilename=Details.pdf HTTP/1.1" 302 197
127.0.0.1 - - [07/Jun/2021:11:01:29 -0400] "GET /Support_2021/rdDownload/rdExport-248bb207-9d60-443c-9c3c-767e1cc3b838/Details.pdf HTTP/1.1" 200 72018
127.0.0.1 - - [07/Jun/2021:11:02:30 -0400] "GET /Support_2021/rdPage.aspx?rdReport=SI26330.Sample HTTP/1.1" 200 9168
127.0.0.1 - - [07/Jun/2021:11:02:30 -0400] "GET /Support_2021/rdTemplate/rdInputTextDelimiter/rdInputTextDelimiter.css HTTP/1.1" 200 1097
127.0.0.1 - - [07/Jun/2021:11:02:30 -0400] "GET /Support_2021/rdTemplate/rdPopup/rdPopupMenu.css HTTP/1.1" 200 581
127.0.0.1 - - [07/Jun/2021:11:02:30 -0400] "GET /Support_2021/rdTemplate/rdYui/rdTabs.css HTTP/1.1" 200 8131
127.0.0.1 - - [07/Jun/2021:11:02:30 -0400] "GET /Support_2021/rdTemplate/rdTheme/Signal/Theme.css HTTP/1.1" 200 52458
127.0.0.1 - - [07/Jun/2021:11:02:30 -0400] "GET /Support_2021/rdTemplate/rdPopup/rdPopupPanel.css HTTP/1.1" 200 1252
127.0.0.1 - - [07/Jun/2021:11:02:30 -0400] "GET /Support_2021/rdDownload/rdLocalizationInfo_4F2F5E1B5F9062AE9CA61596DE42173C.js HTTP/1.1" 200 1254
127.0.0.1 - - [07/Jun/2021:11:02:30 -0400] "GET /Support_2021/rdTemplate/rdInputTextDelimiter/rdInputTextDelimiter.js?v=12.8.702.127 HTTP/1.1" 200 59119
127.0.0.1 - - [07/Jun/2021:11:02:30 -0400] "GET /Support_2021/rdTemplate/rdYui.min.js?v=12.8.702.127 HTTP/1.1" 200 504407
127.0.0.1 - - [07/Jun/2021:11:02:30 -0400] "GET /Support_2021/rdTemplate/rdScript.min.js?v=12.8.702.127 HTTP/1.1" 200 601951
127.0.0.1 - - [07/Jun/2021:11:02:30 -0400] "GET /Support_2021/rdTemplate/rdChartCanvas.min.js?v=12.8.702.127 HTTP/1.1" 200 370879
127.0.0.1 - - [07/Jun/2021:11:02:30 -0400] "GET /Support_2021/_Images/export.png HTTP/1.1" 404 755
127.0.0.1 - - [07/Jun/2021:11:02:30 -0400] "GET /Support_2021/rdTemplate/yui3/build/widget-base/assets/skins/sam/widget-base.css HTTP/1.1" 200 468
127.0.0.1 - - [07/Jun/2021:11:02:30 -0400] "GET /Support_2021/rdTemplate/yui3/build/resize-base/assets/skins/sam/resize-base.css HTTP/1.1" 200 2304
127.0.0.1 - - [07/Jun/2021:11:02:30 -0400] "GET /Support_2021/_Images/export.png HTTP/1.1" 404 755
127.0.0.1 - - [07/Jun/2021:11:02:30 -0400] "GET /Support_2021/rdTemplate/rdBlank.gif HTTP/1.1" 200 55
127.0.0.1 - - [07/Jun/2021:11:02:30 -0400] "GET /Support_2021/rdTemplate/rdDebug.png HTTP/1.1" 200 1430
127.0.0.1 - - [07/Jun/2021:11:02:30 -0400] "GET /favicon.ico HTTP/1.1" 200 21630
127.0.0.1 - - [07/Jun/2021:11:02:31 -0400] "GET /Support_2021/rdTemplate/yui3/build/cssbutton/cssbutton-min.css HTTP/1.1" 200 5380
127.0.0.1 - - [07/Jun/2021:11:02:31 -0400] "GET /Support_2021/rdTemplate/yui3/build/widget-modality/assets/skins/sam/widget-modality.css HTTP/1.1" 200 332
127.0.0.1 - - [07/Jun/2021:11:02:31 -0400] "GET /Support_2021/rdTemplate/yui3/build/widget-stack/assets/skins/sam/widget-stack.css HTTP/1.1" 200 384
127.0.0.1 - - [07/Jun/2021:11:02:31 -0400] "GET /Support_2021/rdTemplate/rdYui/wait-panel.css HTTP/1.1" 200 622
127.0.0.1 - - [07/Jun/2021:11:02:31 -0400] "GET /Support_2021/rdTemplate/yui3/2in3/yui2-skin-sam-tabview/assets/skins/sam/yui2-skin-sam-tabview-min.css HTTP/1.1" 200 8007
127.0.0.1 - - [07/Jun/2021:11:02:31 -0400] "GET /Support_2021/rdTemplate/yui3/build/panel/assets/skins/sam/panel.css HTTP/1.1" 200 2071
127.0.0.1 - - [07/Jun/2021:11:02:31 -0400] "GET /Support_2021/rdTemplate/yui3/2in3/yui2-skin-sam-menu/assets/skins/sam/yui2-skin-sam-menu-min.css HTTP/1.1" 200 9043
127.0.0.1 - - [07/Jun/2021:11:02:35 -0400] "POST /Support_2021/rdPage.aspx?rdReport=SI26330.Sample&rdReportFormat=PDF&rdExportTableID=dtdet&rdKeepTabHeadMIR=True&rdExportFilename=Details.pdf HTTP/1.1" 302 197
127.0.0.1 - - [07/Jun/2021:11:02:35 -0400] "GET /Support_2021/rdDownload/rdExport-f419eb19-c0b1-4b3b-9a9f-6486945c8499/Details.pdf HTTP/1.1" 200 72018
127.0.0.1 - - [07/Jun/2021:11:03:33 -0400] "GET /Support_2021/rdPage.aspx?rdReport=SI26330.Sample HTTP/1.1" 200 9168
127.0.0.1 - - [07/Jun/2021:11:03:33 -0400] "GET /Support_2021/rdTemplate/rdInputTextDelimiter/rdInputTextDelimiter.css HTTP/1.1" 200 1097
127.0.0.1 - - [07/Jun/2021:11:03:33 -0400] "GET /Support_2021/rdTemplate/rdPopup/rdPopupMenu.css HTTP/1.1" 200 581
127.0.0.1 - - [07/Jun/2021:11:03:33 -0400] "GET /Support_2021/rdTemplate/rdYui/rdTabs.css HTTP/1.1" 200 8131
127.0.0.1 - - [07/Jun/2021:11:03:33 -0400] "GET /Support_2021/rdTemplate/rdInputTextDelimiter/rdInputTextDelimiter.js?v=12.8.702.127 HTTP/1.1" 200 59119
127.0.0.1 - - [07/Jun/2021:11:03:33 -0400] "GET /Support_2021/rdTemplate/rdScript.min.js?v=12.8.702.127 HTTP/1.1" 200 601951
127.0.0.1 - - [07/Jun/2021:11:03:33 -0400] "GET /Support_2021/rdTemplate/rdYui.min.js?v=12.8.702.127 HTTP/1.1" 200 504407
127.0.0.1 - - [07/Jun/2021:11:03:33 -0400] "GET /Support_2021/rdTemplate/rdPopup/rdPopupPanel.css HTTP/1.1" 200 1252
127.0.0.1 - - [07/Jun/2021:11:03:33 -0400] "GET /Support_2021/rdTemplate/rdChartCanvas.min.js?v=12.8.702.127 HTTP/1.1" 200 370879
127.0.0.1 - - [07/Jun/2021:11:03:33 -0400] "GET /Support_2021/rdTemplate/rdTheme/Signal/Theme.css HTTP/1.1" 200 52458
127.0.0.1 - - [07/Jun/2021:11:03:33 -0400] "GET /Support_2021/rdDownload/rdLocalizationInfo_4F2F5E1B5F9062AE9CA61596DE42173C.js HTTP/1.1" 200 1254
127.0.0.1 - - [07/Jun/2021:11:03:33 -0400] "GET /Support_2021/_Images/export.png HTTP/1.1" 404 755
127.0.0.1 - - [07/Jun/2021:11:03:33 -0400] "GET /Support_2021/rdTemplate/yui3/build/widget-base/assets/skins/sam/widget-base.css HTTP/1.1" 200 468
127.0.0.1 - - [07/Jun/2021:11:03:33 -0400] "GET /Support_2021/rdTemplate/yui3/build/resize-base/assets/skins/sam/resize-base.css HTTP/1.1" 200 2304
127.0.0.1 - - [07/Jun/2021:11:03:33 -0400] "GET /Support_2021/rdTemplate/rdBlank.gif HTTP/1.1" 200 55
127.0.0.1 - - [07/Jun/2021:11:03:33 -0400] "GET /Support_2021/_Images/export.png HTTP/1.1" 404 755
127.0.0.1 - - [07/Jun/2021:11:03:33 -0400] "GET /Support_2021/rdTemplate/rdDebug.png HTTP/1.1" 200 1430
127.0.0.1 - - [07/Jun/2021:11:03:33 -0400] "GET /favicon.ico HTTP/1.1" 200 21630
127.0.0.1 - - [07/Jun/2021:11:03:33 -0400] "GET /Support_2021/rdTemplate/yui3/build/cssbutton/cssbutton-min.css HTTP/1.1" 200 5380
127.0.0.1 - - [07/Jun/2021:11:03:33 -0400] "GET /Support_2021/rdTemplate/yui3/2in3/yui2-skin-sam-menu/assets/skins/sam/yui2-skin-sam-menu-min.css HTTP/1.1" 200 9043
127.0.0.1 - - [07/Jun/2021:11:03:33 -0400] "GET /Support_2021/rdTemplate/yui3/build/panel/assets/skins/sam/panel.css HTTP/1.1" 200 2071
127.0.0.1 - - [07/Jun/2021:11:03:33 -0400] "GET /Support_2021/rdTemplate/yui3/build/widget-stack/assets/skins/sam/widget-stack.css HTTP/1.1" 200 384
127.0.0.1 - - [07/Jun/2021:11:03:33 -0400] "GET /Support_2021/rdTemplate/yui3/2in3/yui2-skin-sam-tabview/assets/skins/sam/yui2-skin-sam-tabview-min.css HTTP/1.1" 200 8007
127.0.0.1 - - [07/Jun/2021:11:03:33 -0400] "GET /Support_2021/rdTemplate/rdYui/wait-panel.css HTTP/1.1" 200 622
127.0.0.1 - - [07/Jun/2021:11:03:33 -0400] "GET /Support_2021/rdTemplate/yui3/build/widget-modality/assets/skins/sam/widget-modality.css HTTP/1.1" 200 332
127.0.0.1 - - [07/Jun/2021:11:04:01 -0400] "POST /Support_2021/rdPage.aspx?rdReport=SI26330.Sample&rdReportFormat=PDF&rdExportTableID=dtdet&rdKeepTabHeadMIR=True&rdExportFilename=Details.pdf HTTP/1.1" 302 197
127.0.0.1 - - [07/Jun/2021:11:04:01 -0400] "GET /Support_2021/rdDownload/rdExport-8f374d61-10ab-4619-9172-b66ab359ba7d/Details.pdf HTTP/1.1" 200 5244780
0:0:0:0:0:0:0:1 - - [07/Jun/2021:11:09:33 -0400] "GET /Support_2021/rdPage.aspx?rdReportFormat=DataLayerSchema&rdStudio=True&rdDataLayerMaxRows=0&rdNoDoctype=True&lgx_ReportID=~$Default383e27fd-9a88-4dfa-b75f-c037218987c1 HTTP/1.1" 200 539
0:0:0:0:0:0:0:1 - - [07/Jun/2021:11:09:51 -0400] "GET /Support_2021/rdTemplate/rdAnalysisChart/rdGetDefinition.aspx HTTP/1.1" 200 27
0:0:0:0:0:0:0:1 - - [07/Jun/2021:11:10:43 -0400] "GET /Support_2021/rdPage.aspx?rdDebugSession=False&rdForWizard=True&rdReport=~$tmp1ed16780-06a9-4371-b73d-720f53fc9e47&rdAgReset=True&lgxPreview=1 HTTP/1.1" 200 6
