<?xml version="1.0"?>
<gpx version="1.0" creator="GPS Visualizer http://www.gpsvisualizer.com/" xmlns="http://www.topografix.com/GPX/1/0" xmlns:xsi="http://www.w3.org/2001/XMLSchema-instance" xsi:schemaLocation="http://www.topografix.com/GPX/1/0 http://www.topografix.com/GPX/1/0/gpx.xsd">
	<trk>
		<name>LouvreToCafeMetropole</name>
		<trkseg>
			<trkpt lat="48.8610022" lon="2.3352277"></trkpt>
			<trkpt lat="48.8607410" lon="2.3350883"></trkpt>
			<trkpt lat="48.8605857" lon="2.3356140"></trkpt>
			<trkpt lat="48.8598023" lon="2.3351634"></trkpt>
			<trkpt lat="48.8594352" lon="2.3366225"></trkpt>
			<trkpt lat="48.8593152" lon="2.3379850"></trkpt>
			<trkpt lat="48.8591670" lon="2.3390150"></trkpt>
			<trkpt lat="48.8589482" lon="2.3402274"></trkpt>
			<trkpt lat="48.8590470" lon="2.3402917"></trkpt>
		</trkseg>
	</trk>
	<trk>
		<name>LouvreToOrsay</name>
		<trkseg>
			<trkpt lat="48.8611857" lon="2.3351204"></trkpt>
			<trkpt lat="48.8613198" lon="2.3345196"></trkpt>
			<trkpt lat="48.8611292" lon="2.3340690"></trkpt>
			<trkpt lat="48.8601834" lon="2.3335111"></trkpt>
			<trkpt lat="48.8599364" lon="2.3332644"></trkpt>
			<trkpt lat="48.8587505" lon="2.3325777"></trkpt>
			<trkpt lat="48.8586376" lon="2.3320949"></trkpt>
			<trkpt lat="48.8607128" lon="2.3255396"></trkpt>
			<trkpt lat="48.8603599" lon="2.3251534"></trkpt>
			<trkpt lat="48.8603034" lon="2.3253036"></trkpt>
		</trkseg>
	</trk>
	<trk>
		<name>LouvreToTuileries</name>
		<trkseg>
			<trkpt lat="48.8612492" lon="2.3351204"></trkpt>
			<trkpt lat="48.8633455" lon="2.3278034"></trkpt>
		</trkseg>
	</trk>
	<trk>
		<name>LouvreToAngelina</name>
		<trkseg>
			<trkpt lat="48.8613269" lon="2.3351634"></trkpt>
			<trkpt lat="48.8617292" lon="2.3344123"></trkpt>
			<trkpt lat="48.8626821" lon="2.3353672"></trkpt>
			<trkpt lat="48.8659640" lon="2.3252285"></trkpt>
			<trkpt lat="48.8660487" lon="2.3253036"></trkpt>
		</trkseg>
	</trk>
	<trk>
		<name>LouvreToPalaisRoyal</name>
		<trkseg>
			<trkpt lat="48.8613975" lon="2.3352277"></trkpt>
			<trkpt lat="48.8618492" lon="2.3345840"></trkpt>
			<trkpt lat="48.8626609" lon="2.3354208"></trkpt>
			<trkpt lat="48.8624068" lon="2.3362470"></trkpt>
			<trkpt lat="48.8629291" lon="2.3365474"></trkpt>
			<trkpt lat="48.8628303" lon="2.3369551"></trkpt>
			<trkpt lat="48.8629644" lon="2.3370302"></trkpt>
		</trkseg>
	</trk>
	<trk>
		<name>LouvreToCafedelEpoque</name>
		<trkseg>
			<trkpt lat="48.8614892" lon="2.3353028"></trkpt>
			<trkpt lat="48.8619127" lon="2.3347235"></trkpt>
			<trkpt lat="48.8626185" lon="2.3354530"></trkpt>
			<trkpt lat="48.8621668" lon="2.3370194"></trkpt>
			<trkpt lat="48.8627174" lon="2.3373735"></trkpt>
			<trkpt lat="48.8622586" lon="2.3391759"></trkpt>
			<trkpt lat="48.8630279" lon="2.3396051"></trkpt>
		</trkseg>
	</trk>
</gpx>