0:0:0:0:0:0:0:1 - - [14/Aug/2019:12:06:43 -0400] "GET /InfoGoJava12_6_308 HTTP/1.1" 404 1092
0:0:0:0:0:0:0:1 - - [14/Aug/2019:12:07:41 -0400] "GET /InfoGoJava12_5_272 HTTP/1.1" 302 -
0:0:0:0:0:0:0:1 - - [14/Aug/2019:12:07:48 -0400] "GET /InfoGoJava12_5_272/ HTTP/1.1" 302 146
0:0:0:0:0:0:0:1 - - [14/Aug/2019:12:07:49 -0400] "GET /InfoGoJava12_5_272/rdPage.aspx HTTP/1.1" 302 146
0:0:0:0:0:0:0:1 - - [14/Aug/2019:12:07:49 -0400] "GET /InfoGoJava12_5_272/rdLogon.jsp HTTP/1.1" 200 2891
0:0:0:0:0:0:0:1 - - [14/Aug/2019:12:07:55 -0400] "POST /InfoGoJava12_5_272/rdPage.aspx HTTP/1.1" 302 240
0:0:0:0:0:0:0:1 - - [14/Aug/2019:12:08:04 -0400] "GET /InfoGoJava12_5_272/rdPage.aspx?rdReport=InfoGo.goHome&rdDebugGuid=feca6503c4af4a598b04a02e12164982&Submit1=Logon&rdRnd=86803 HTTP/1.1" 200 597652
0:0:0:0:0:0:0:1 - - [14/Aug/2019:12:08:04 -0400] "GET /InfoGoJava12_5_272/rdTemplate/rdInputTextDelimiter/rdInputTextDelimiter.css HTTP/1.1" 200 1097
0:0:0:0:0:0:0:1 - - [14/Aug/2019:12:08:04 -0400] "GET /InfoGoJava12_5_272/rdTemplate/rdGridSystem.css HTTP/1.1" 200 14627
0:0:0:0:0:0:0:1 - - [14/Aug/2019:12:08:04 -0400] "GET /InfoGoJava12_5_272/rdTemplate/rdPopup/rdPopupPanel.css HTTP/1.1" 200 1252
0:0:0:0:0:0:0:1 - - [14/Aug/2019:12:08:04 -0400] "GET /InfoGoJava12_5_272/rdTemplate/rdBookmarkOrganizer/rdBookmarkOrganizer.css HTTP/1.1" 200 1986
0:0:0:0:0:0:0:1 - - [14/Aug/2019:12:08:04 -0400] "GET /InfoGoJava12_5_272/rdTemplate/rdPopup/rdPopupMenu.css HTTP/1.1" 200 581
0:0:0:0:0:0:0:1 - - [14/Aug/2019:12:08:04 -0400] "GET /InfoGoJava12_5_272/rdTemplate/rdTheme/Signal/Theme.css HTTP/1.1" 200 51990
0:0:0:0:0:0:0:1 - - [14/Aug/2019:12:08:04 -0400] "GET /InfoGoJava12_5_272/rdTemplate/rdInputTextDelimiter/rdInputTextDelimiter.js?v=12.7.46.233 HTTP/1.1" 200 56574
0:0:0:0:0:0:0:1 - - [14/Aug/2019:12:08:04 -0400] "GET /InfoGoJava12_5_272/_SupportFiles/goCustomizations.Custom.css HTTP/1.1" 200 1179
0:0:0:0:0:0:0:1 - - [14/Aug/2019:12:08:04 -0400] "GET /InfoGoJava12_5_272/_SupportFiles/InfoGo.GO.css HTTP/1.1" 200 9754
0:0:0:0:0:0:0:1 - - [14/Aug/2019:12:08:04 -0400] "GET /InfoGoJava12_5_272/rdTemplate/rdYui.min.js?v=12.7.46.233 HTTP/1.1" 200 504022
0:0:0:0:0:0:0:1 - - [14/Aug/2019:12:08:04 -0400] "GET /InfoGoJava12_5_272/rdTemplate/rdScript.min.js?v=12.7.46.233 HTTP/1.1" 200 563054
0:0:0:0:0:0:0:1 - - [14/Aug/2019:12:08:04 -0400] "GET /InfoGoJava12_5_272/rdTemplate/rdIframeIOS.js HTTP/1.1" 200 437
0:0:0:0:0:0:0:1 - - [14/Aug/2019:12:08:04 -0400] "GET /InfoGoJava12_5_272/rdTemplate/rdChartCanvas.min.js?v=12.7.46.233 HTTP/1.1" 200 360580
0:0:0:0:0:0:0:1 - - [14/Aug/2019:12:08:04 -0400] "GET /InfoGoJava12_5_272/rdDownload/rdLocalizationInfo_9C6D4D3F53EDEC906BE3F4CD062FCE1D.js HTTP/1.1" 200 1254
0:0:0:0:0:0:0:1 - - [14/Aug/2019:12:08:04 -0400] "GET /InfoGoJava12_5_272/_SupportFiles/InfoGo.iconLogi.png HTTP/1.1" 200 14854
0:0:0:0:0:0:0:1 - - [14/Aug/2019:12:08:04 -0400] "GET /InfoGoJava12_5_272/rdTemplate/rdUserIcon.png HTTP/1.1" 200 14891
0:0:0:0:0:0:0:1 - - [14/Aug/2019:12:08:05 -0400] "GET /InfoGoJava12_5_272/_SupportFiles/InfoGo.iconMenu.png HTTP/1.1" 200 16112
0:0:0:0:0:0:0:1 - - [14/Aug/2019:12:08:05 -0400] "GET /InfoGoJava12_5_272/_SupportFiles/InfoGo.iconHome.png HTTP/1.1" 200 646
0:0:0:0:0:0:0:1 - - [14/Aug/2019:12:08:05 -0400] "GET /InfoGoJava12_5_272/_SupportFiles/InfoGo.iconDiscovery.png HTTP/1.1" 200 1211
0:0:0:0:0:0:0:1 - - [14/Aug/2019:12:08:05 -0400] "GET /InfoGoJava12_5_272/_SupportFiles/InfoGo.iconAnalisysGrid.png HTTP/1.1" 200 906
0:0:0:0:0:0:0:1 - - [14/Aug/2019:12:08:05 -0400] "GET /InfoGoJava12_5_272/_SupportFiles/InfoGo.iconDashboard.png HTTP/1.1" 200 1023
0:0:0:0:0:0:0:1 - - [14/Aug/2019:12:08:05 -0400] "GET /InfoGoJava12_5_272/_SupportFiles/InfoGo.iconReport.png HTTP/1.1" 200 984
0:0:0:0:0:0:0:1 - - [14/Aug/2019:12:08:05 -0400] "GET /InfoGoJava12_5_272/_SupportFiles/InfoGo.iconManageData.png HTTP/1.1" 200 1174
0:0:0:0:0:0:0:1 - - [14/Aug/2019:12:08:05 -0400] "GET /InfoGoJava12_5_272/_SupportFiles/InfoGo.iconScheduleManager.png HTTP/1.1" 200 1036
0:0:0:0:0:0:0:1 - - [14/Aug/2019:12:08:05 -0400] "GET /InfoGoJava12_5_272/rdTemplate/rdArrowBlank.gif HTTP/1.1" 200 825
0:0:0:0:0:0:0:1 - - [14/Aug/2019:12:08:05 -0400] "GET /InfoGoJava12_5_272/rdTemplate/rdArrowRight.png HTTP/1.1" 200 1124
0:0:0:0:0:0:0:1 - - [14/Aug/2019:12:08:05 -0400] "GET /InfoGoJava12_5_272/rdTemplate/rdArrowDown.png HTTP/1.1" 200 1115
0:0:0:0:0:0:0:1 - - [14/Aug/2019:12:08:05 -0400] "GET /InfoGoJava12_5_272/_SupportFiles/InfoGo.iconHomeSelected.png HTTP/1.1" 200 1800
0:0:0:0:0:0:0:1 - - [14/Aug/2019:12:08:05 -0400] "GET /InfoGoJava12_5_272/_SupportFiles/InfoGo.iconHelp.png HTTP/1.1" 200 945
0:0:0:0:0:0:0:1 - - [14/Aug/2019:12:08:05 -0400] "GET /InfoGoJava12_5_272/rdTemplate/yui3/build/widget-base/assets/skins/sam/widget-base.css HTTP/1.1" 200 468
0:0:0:0:0:0:0:1 - - [14/Aug/2019:12:08:05 -0400] "GET /InfoGoJava12_5_272/rdTemplate/yui3/build/resize-base/assets/skins/sam/resize-base.css HTTP/1.1" 200 2304
0:0:0:0:0:0:0:1 - - [14/Aug/2019:12:08:05 -0400] "GET /InfoGoJava12_5_272/rdTemplate/rdArrowRight.gif HTTP/1.1" 200 1122
0:0:0:0:0:0:0:1 - - [14/Aug/2019:12:08:05 -0400] "GET /InfoGoJava12_5_272/rdTemplate/rdArrowDown.gif HTTP/1.1" 200 1121
0:0:0:0:0:0:0:1 - - [14/Aug/2019:12:08:05 -0400] "GET /InfoGoJava12_5_272/rdTemplate/rdBookmarkOrganizer/rdBookmarkFolder.png HTTP/1.1" 200 14609
0:0:0:0:0:0:0:1 - - [14/Aug/2019:12:08:05 -0400] "GET /InfoGoJava12_5_272/rdTemplate/rdBookmarkOrganizer/rdSettingsCog.png HTTP/1.1" 200 471
0:0:0:0:0:0:0:1 - - [14/Aug/2019:12:08:05 -0400] "GET /InfoGoJava12_5_272/rdTemplate/rdBlank.gif HTTP/1.1" 200 55
0:0:0:0:0:0:0:1 - - [14/Aug/2019:12:08:05 -0400] "GET /InfoGoJava12_5_272/rdTemplate/yui3/build/cssbutton/cssbutton-min.css HTTP/1.1" 200 5380
0:0:0:0:0:0:0:1 - - [14/Aug/2019:12:08:05 -0400] "GET /InfoGoJava12_5_272/rdTemplate/yui3/build/widget-modality/assets/skins/sam/widget-modality.css HTTP/1.1" 200 332
0:0:0:0:0:0:0:1 - - [14/Aug/2019:12:08:05 -0400] "GET /InfoGoJava12_5_272/rdTemplate/yui3/build/widget-stack/assets/skins/sam/widget-stack.css HTTP/1.1" 200 384
0:0:0:0:0:0:0:1 - - [14/Aug/2019:12:08:05 -0400] "GET /InfoGoJava12_5_272/rdTemplate/rdYui/wait-panel.css HTTP/1.1" 200 622
0:0:0:0:0:0:0:1 - - [14/Aug/2019:12:08:05 -0400] "GET /InfoGoJava12_5_272/rdTemplate/rdYui/drawable-overlay.css HTTP/1.1" 200 133
0:0:0:0:0:0:0:1 - - [14/Aug/2019:12:08:05 -0400] "GET /InfoGoJava12_5_272/rdTemplate/yui3/build/panel/assets/skins/sam/panel.css HTTP/1.1" 200 2071
0:0:0:0:0:0:0:1 - - [14/Aug/2019:12:08:05 -0400] "GET /InfoGoJava12_5_272/rdTemplate/rdBookmarkOrganizer/rdBookmarkSharingOff.png HTTP/1.1" 200 1291
0:0:0:0:0:0:0:1 - - [14/Aug/2019:12:08:05 -0400] "GET /InfoGoJava12_5_272/rdTemplate/rdBookmarkOrganizer/rdBookmarkSharingOn.png HTTP/1.1" 200 1297
0:0:0:0:0:0:0:1 - - [14/Aug/2019:12:08:05 -0400] "GET /InfoGoJava12_5_272/rdTemplate/rdBookmarkOrganizer/rdDragHandle.png HTTP/1.1" 200 192
0:0:0:0:0:0:0:1 - - [14/Aug/2019:12:08:05 -0400] "GET /InfoGoJava12_5_272/_SupportFiles/InfoGo.scheduleOff.png HTTP/1.1" 200 1315
0:0:0:0:0:0:0:1 - - [14/Aug/2019:12:08:05 -0400] "GET /InfoGoJava12_5_272/_SupportFiles/InfoGo.iconAnalysis-48.png HTTP/1.1" 200 501
0:0:0:0:0:0:0:1 - - [14/Aug/2019:12:08:05 -0400] "GET /InfoGoJava12_5_272/_SupportFiles/rdBookmarkSharingTransparent.png HTTP/1.1" 200 1184
0:0:0:0:0:0:0:1 - - [14/Aug/2019:12:08:05 -0400] "GET /InfoGoJava12_5_272/_SupportFiles/InfoGo.deleteOff.png HTTP/1.1" 200 1177
0:0:0:0:0:0:0:1 - - [14/Aug/2019:12:08:05 -0400] "GET /InfoGoJava12_5_272/_SupportFiles/InfoGo.iconDashboard-48.png HTTP/1.1" 200 855
0:0:0:0:0:0:0:1 - - [14/Aug/2019:12:08:05 -0400] "GET /InfoGoJava12_5_272/_SupportFiles/rdBookmarkSharingOn.png HTTP/1.1" 200 1297
0:0:0:0:0:0:0:1 - - [14/Aug/2019:12:08:05 -0400] "GET /InfoGoJava12_5_272/_SupportFiles/InfoGo.Print.css HTTP/1.1" 200 752
0:0:0:0:0:0:0:1 - - [14/Aug/2019:12:08:05 -0400] "GET /InfoGoJava12_5_272/_SupportFiles/InfoGo.iconReport-48.png HTTP/1.1" 200 14907
0:0:0:0:0:0:0:1 - - [14/Aug/2019:12:08:06 -0400] "GET /InfoGoJava12_5_272/_SupportFiles/InfoGo.iconFind.png HTTP/1.1" 200 497
0:0:0:0:0:0:0:1 - - [14/Aug/2019:12:08:06 -0400] "GET /InfoGoJava12_5_272/rdTemplate/rdTheme/Signal/images/rdPageNextDark.png HTTP/1.1" 200 355
0:0:0:0:0:0:0:1 - - [14/Aug/2019:12:08:06 -0400] "GET /InfoGoJava12_5_272/rdTemplate/rdTheme/Signal/images/rdPageLastDark.png HTTP/1.1" 200 381
0:0:0:0:0:0:0:1 - - [14/Aug/2019:12:08:06 -0400] "GET /InfoGoJava12_5_272/_SupportFiles/goCustomizations.Custom.js HTTP/1.1" 200 -
0:0:0:0:0:0:0:1 - - [14/Aug/2019:12:08:06 -0400] "GET /InfoGoJava12_5_272/rdTemplate/rdPagingWait.gif HTTP/1.1" 200 581
0:0:0:0:0:0:0:1 - - [14/Aug/2019:12:08:06 -0400] "GET /InfoGoJava12_5_272/rdTemplate/rdDebug.png HTTP/1.1" 200 1430
0:0:0:0:0:0:0:1 - - [14/Aug/2019:12:08:06 -0400] "GET /InfoGoJava12_5_272/_SupportFiles/gradient.png HTTP/1.1" 200 54328
0:0:0:0:0:0:0:1 - - [14/Aug/2019:12:08:06 -0400] "GET /InfoGoJava12_5_272/rdTemplate/yui3/2in3/yui2-skin-sam-menu/assets/skins/sam/yui2-skin-sam-menu-min.css HTTP/1.1" 200 9043
0:0:0:0:0:0:0:1 - - [14/Aug/2019:12:08:06 -0400] "POST /InfoGoJava12_5_272/rdTemplate/rdAjax/rdAjax.aspx HTTP/1.1" 200 -
0:0:0:0:0:0:0:1 - - [14/Aug/2019:12:08:07 -0400] "GET /InfoGoJava12_5_272/rdTemplate/rdWaitAll.gif HTTP/1.1" 200 9974
0:0:0:0:0:0:0:1 - - [14/Aug/2019:12:08:12 -0400] "POST /InfoGoJava12_5_272/rdPage.aspx?rdReport=InfoGo.goDiscovery&goBookmarkCaption=Untitled+Analysis&rdAgReset=True&rdBookmarkCollection=JoegoCollection&rdEditThinkspace=False&rdNewBookmark=True HTTP/1.1" 200 94122
0:0:0:0:0:0:0:1 - - [14/Aug/2019:12:08:12 -0400] "GET /InfoGoJava12_5_272/rdTemplate/rdAnalysisGrid/rdAg10Style.css HTTP/1.1" 200 8581
0:0:0:0:0:0:0:1 - - [14/Aug/2019:12:08:12 -0400] "GET /InfoGoJava12_5_272/rdTemplate/rdColumnColorStyle.css HTTP/1.1" 200 861
0:0:0:0:0:0:0:1 - - [14/Aug/2019:12:08:12 -0400] "GET /InfoGoJava12_5_272/rdDownload/rdLocalizationInfo_9C6D4D3F53EDEC906BE3F4CD062FCE1D.js HTTP/1.1" 304 -
0:0:0:0:0:0:0:1 - - [14/Aug/2019:12:08:12 -0400] "GET /InfoGoJava12_5_272/_SupportFiles/InfoGo.iconDiscoverySelected.png HTTP/1.1" 200 842
0:0:0:0:0:0:0:1 - - [14/Aug/2019:12:08:12 -0400] "GET /InfoGoJava12_5_272/_SupportFiles/InfoGo.iconCloseGray.png HTTP/1.1" 200 15539
0:0:0:0:0:0:0:1 - - [14/Aug/2019:12:08:12 -0400] "GET /InfoGoJava12_5_272/_SupportFiles/InfoGo.Discovery.qbOnChangeValidation.js HTTP/1.1" 200 2828
0:0:0:0:0:0:0:1 - - [14/Aug/2019:12:08:12 -0400] "GET /InfoGoJava12_5_272/rdTemplate/rdTheme/Signal/images/imgQueryBuilderSub.png HTTP/1.1" 200 562
0:0:0:0:0:0:0:1 - - [14/Aug/2019:12:08:12 -0400] "GET /InfoGoJava12_5_272/_SupportFiles/InfoGo.iconQueryBuilderSub.png HTTP/1.1" 200 562
0:0:0:0:0:0:0:1 - - [14/Aug/2019:12:08:39 -0400] "GET /InfoGoJava12_5_272/rdPage.aspx?rdReport=InfoGo.goHome&goFind= HTTP/1.1" 200 597563
0:0:0:0:0:0:0:1 - - [14/Aug/2019:12:08:39 -0400] "GET /InfoGoJava12_5_272/rdDownload/rdLocalizationInfo_9C6D4D3F53EDEC906BE3F4CD062FCE1D.js HTTP/1.1" 304 -
0:0:0:0:0:0:0:1 - - [14/Aug/2019:12:08:40 -0400] "POST /InfoGoJava12_5_272/rdTemplate/rdAjax/rdAjax.aspx HTTP/1.1" 200 -
0:0:0:0:0:0:0:1 - - [14/Aug/2019:12:08:49 -0400] "POST /InfoGoJava12_5_272/rdPage.aspx?rdReport=InfoGo.goDiscovery&goBookmarkCaption=Untitled+Analysis&rdAgReset=True&rdBookmarkCollection=JoegoCollection&rdEditThinkspace=False&rdNewBookmark=True HTTP/1.1" 200 94127
0:0:0:0:0:0:0:1 - - [14/Aug/2019:12:08:49 -0400] "GET /InfoGoJava12_5_272/rdDownload/rdLocalizationInfo_9C6D4D3F53EDEC906BE3F4CD062FCE1D.js HTTP/1.1" 304 -
0:0:0:0:0:0:0:1 - - [14/Aug/2019:12:08:56 -0400] "POST /InfoGoJava12_5_272/rdPage.aspx?rdReport=InfoGo.goDiscovery&rdQbCommand=UpdateQb&rdAgCommandID=6e6abbe7-5e10-4010-b875-7af1fd1c5003&rdQbControlNr=0&rdBookmarkCollection=JoegoCollection&rdBookmarkID=&rdBookmarkUserName=&rdContentDivID=&rdDashPanelId=&rdEditThinkspace=False&rdResetThinkspace=True HTTP/1.1" 200 41973
0:0:0:0:0:0:0:1 - - [14/Aug/2019:12:08:56 -0400] "GET /InfoGoJava12_5_272/rdTemplate/rdYui.min.js HTTP/1.1" 200 504022
0:0:0:0:0:0:0:1 - - [14/Aug/2019:12:08:56 -0400] "GET /InfoGoJava12_5_272/rdTemplate/rdScript.min.js HTTP/1.1" 200 563054
0:0:0:0:0:0:0:1 - - [14/Aug/2019:12:09:29 -0400] "GET /InfoGoJava12_5_272/rdPage.aspx?rdReport=InfoGo.goHome&goFind= HTTP/1.1" 200 597563
0:0:0:0:0:0:0:1 - - [14/Aug/2019:12:09:29 -0400] "GET /InfoGoJava12_5_272/rdDownload/rdLocalizationInfo_9C6D4D3F53EDEC906BE3F4CD062FCE1D.js HTTP/1.1" 304 -
0:0:0:0:0:0:0:1 - - [14/Aug/2019:12:09:30 -0400] "POST /InfoGoJava12_5_272/rdTemplate/rdAjax/rdAjax.aspx HTTP/1.1" 200 -
0:0:0:0:0:0:0:1 - - [14/Aug/2019:12:09:33 -0400] "POST /InfoGoJava12_5_272/rdPage.aspx?rdReport=InfoGo.goDiscovery&goBookmarkCaption=Untitled+Analysis&rdAgReset=True&rdBookmarkCollection=JoegoCollection&rdEditThinkspace=False&rdNewBookmark=True HTTP/1.1" 200 94125
0:0:0:0:0:0:0:1 - - [14/Aug/2019:12:09:45 -0400] "POST /InfoGoJava12_5_272/rdPage.aspx?rdReport=InfoGo.goDiscovery&rdQbCommand=UpdateQb&rdAgCommandID=efdfef6a-fe3a-43bd-b6f1-2a309afc276b&rdQbControlNr=0&rdBookmarkCollection=JoegoCollection&rdBookmarkID=&rdBookmarkUserName=&rdContentDivID=&rdDashPanelId=&rdEditThinkspace=False&rdResetThinkspace=True HTTP/1.1" 200 95861
0:0:0:0:0:0:0:1 - - [14/Aug/2019:12:09:45 -0400] "GET /InfoGoJava12_5_272/rdDownload/rdLocalizationInfo_9C6D4D3F53EDEC906BE3F4CD062FCE1D.js HTTP/1.1" 304 -
0:0:0:0:0:0:0:1 - - [14/Aug/2019:12:09:51 -0400] "POST /InfoGoJava12_5_272/rdPage.aspx?rdReport=InfoGo.goDiscovery&rdQbCommand=UpdateQb&rdAgCommandID=e6b557b3-9c0f-4caf-99fc-a340c2113425&rdQbControlNr=1&rdBookmarkCollection=JoegoCollection&rdBookmarkID=&rdBookmarkUserName=&rdContentDivID=&rdDashPanelId=&rdEditThinkspace=False&rdResetThinkspace=True HTTP/1.1" 200 97594
0:0:0:0:0:0:0:1 - - [14/Aug/2019:12:09:51 -0400] "GET /InfoGoJava12_5_272/rdTemplate/rdInputCheckboxList/rdInputCheckboxList.css HTTP/1.1" 200 1151
0:0:0:0:0:0:0:1 - - [14/Aug/2019:12:09:55 -0400] "POST /InfoGoJava12_5_272/rdPage.aspx?rdReport=InfoGo.goDiscovery&rdAgCommand=UpdateAgFromQb&rdQbCommand=UpdateQb&rdAgCommandID=c9d4ca57-0dec-4bc7-bc33-1c6db71ae2fd&rdBookmarkCollection=JoegoCollection&rdBookmarkID=&rdBookmarkUserName=&rdContentDivID=&rdDashPanelId=&rdEditThinkspace=False&rdResetThinkspace=True HTTP/1.1" 200 40868
0:0:0:0:0:0:0:1 - - [14/Aug/2019:12:11:47 -0400] "POST /InfoGoJava12_5_272/rdPage.aspx?rdReport=InfoGo.goDiscovery&goBookmarkCaption=Untitled+Analysis&rdAgReset=True&rdBookmarkCollection=JoegoCollection&rdEditThinkspace=False&rdNewBookmark=True HTTP/1.1" 200 94125
0:0:0:0:0:0:0:1 - - [14/Aug/2019:12:11:47 -0400] "GET /InfoGoJava12_5_272/rdDownload/rdLocalizationInfo_9C6D4D3F53EDEC906BE3F4CD062FCE1D.js HTTP/1.1" 304 -
0:0:0:0:0:0:0:1 - - [14/Aug/2019:12:11:53 -0400] "POST /InfoGoJava12_5_272/rdPage.aspx?rdReport=InfoGo.goDiscovery&rdQbCommand=UpdateQb&rdAgCommandID=5da43eac-15ee-441d-807d-28fed6ca4325&rdQbControlNr=0&rdBookmarkCollection=JoegoCollection&rdBookmarkID=&rdBookmarkUserName=&rdContentDivID=&rdDashPanelId=&rdEditThinkspace=False&rdResetThinkspace=True HTTP/1.1" 200 95861
0:0:0:0:0:0:0:1 - - [14/Aug/2019:12:12:01 -0400] "POST /InfoGoJava12_5_272/rdPage.aspx?rdReport=InfoGo.goDiscovery&rdQbCommand=UpdateQb&rdAgCommandID=c5d27995-af38-4bee-ae9d-05c7fa01a7ad&rdQbControlNr=1&rdBookmarkCollection=JoegoCollection&rdBookmarkID=&rdBookmarkUserName=&rdContentDivID=&rdDashPanelId=&rdEditThinkspace=False&rdResetThinkspace=True HTTP/1.1" 200 97594
0:0:0:0:0:0:0:1 - - [14/Aug/2019:12:12:04 -0400] "POST /InfoGoJava12_5_272/rdPage.aspx?rdReport=InfoGo.goDiscovery&rdAgCommand=UpdateAgFromQb&rdQbCommand=UpdateQb&rdAgCommandID=0e42ca77-b3e8-4c7a-b19f-46c0344f8c62&rdBookmarkCollection=JoegoCollection&rdBookmarkID=&rdBookmarkUserName=&rdContentDivID=&rdDashPanelId=&rdEditThinkspace=False&rdResetThinkspace=True HTTP/1.1" 200 40864
0:0:0:0:0:0:0:1 - - [14/Aug/2019:12:13:36 -0400] "GET /InfoGoJava12_5_272/rdPage.aspx?rdReport=InfoGo.goHome&goFind= HTTP/1.1" 200 597563
0:0:0:0:0:0:0:1 - - [14/Aug/2019:12:13:36 -0400] "GET /InfoGoJava12_5_272/rdDownload/rdLocalizationInfo_9C6D4D3F53EDEC906BE3F4CD062FCE1D.js HTTP/1.1" 304 -
0:0:0:0:0:0:0:1 - - [14/Aug/2019:12:13:37 -0400] "POST /InfoGoJava12_5_272/rdTemplate/rdAjax/rdAjax.aspx HTTP/1.1" 200 -
0:0:0:0:0:0:0:1 - - [14/Aug/2019:12:13:40 -0400] "POST /InfoGoJava12_5_272/rdPage.aspx?rdReport=InfoGo.goDiscovery&goBookmarkCaption=Untitled+Analysis&rdAgReset=True&rdBookmarkCollection=JoegoCollection&rdEditThinkspace=False&rdNewBookmark=True HTTP/1.1" 200 94125
0:0:0:0:0:0:0:1 - - [14/Aug/2019:12:13:45 -0400] "POST /InfoGoJava12_5_272/rdPage.aspx?rdReport=InfoGo.goDiscovery&rdQbCommand=UpdateQb&rdAgCommandID=16060e6d-3a71-49de-b4d5-8b87ddb5f74c&rdQbControlNr=0&rdBookmarkCollection=JoegoCollection&rdBookmarkID=&rdBookmarkUserName=&rdContentDivID=&rdDashPanelId=&rdEditThinkspace=False&rdResetThinkspace=True HTTP/1.1" 200 95861
0:0:0:0:0:0:0:1 - - [14/Aug/2019:12:13:48 -0400] "POST /InfoGoJava12_5_272/rdPage.aspx?rdReport=InfoGo.goDiscovery&rdQbCommand=UpdateQb&rdAgCommandID=11a94aae-c21f-45be-bcc2-842e56941e00&rdQbControlNr=1&rdBookmarkCollection=JoegoCollection&rdBookmarkID=&rdBookmarkUserName=&rdContentDivID=&rdDashPanelId=&rdEditThinkspace=False&rdResetThinkspace=True HTTP/1.1" 200 97594
0:0:0:0:0:0:0:1 - - [14/Aug/2019:12:13:51 -0400] "POST /InfoGoJava12_5_272/rdPage.aspx?rdReport=InfoGo.goDiscovery&rdAgCommand=UpdateAgFromQb&rdQbCommand=UpdateQb&rdAgCommandID=877843f8-c96c-4f1e-bbe8-1b7f2db78ead&rdBookmarkCollection=JoegoCollection&rdBookmarkID=&rdBookmarkUserName=&rdContentDivID=&rdDashPanelId=&rdEditThinkspace=False&rdResetThinkspace=True HTTP/1.1" 200 41131
0:0:0:0:0:0:0:1 - - [14/Aug/2019:12:14:01 -0400] "GET /InfoGoJava12_5_272/rdDownload/9C6D4D3F53EDEC906BE3F4CD062FCE1D-43a5d6166b6e401ea28686cbcd7bcd1c-bed421c61a534340880b24dc9a90fad9-rdDebug.txt HTTP/1.1" 200 185
