0:0:0:0:0:0:0:1 - - [06/Aug/2020:06:11:40 -0400] "GET /Support_2020_JDK8 HTTP/1.1" 302 -
0:0:0:0:0:0:0:1 - - [06/Aug/2020:06:13:37 -0400] "GET / HTTP/1.1" 200 11488
0:0:0:0:0:0:0:1 - - [06/Aug/2020:06:13:37 -0400] "GET /tomcat.css HTTP/1.1" 200 5931
0:0:0:0:0:0:0:1 - - [06/Aug/2020:06:13:37 -0400] "GET /tomcat.png HTTP/1.1" 200 5103
0:0:0:0:0:0:0:1 - - [06/Aug/2020:06:13:37 -0400] "GET /bg-nav.png HTTP/1.1" 200 1401
0:0:0:0:0:0:0:1 - - [06/Aug/2020:06:13:37 -0400] "GET /bg-button.png HTTP/1.1" 200 713
0:0:0:0:0:0:0:1 - - [06/Aug/2020:06:13:37 -0400] "GET /bg-upper.png HTTP/1.1" 200 3103
0:0:0:0:0:0:0:1 - - [06/Aug/2020:06:13:37 -0400] "GET /asf-logo-wide.svg HTTP/1.1" 200 27530
0:0:0:0:0:0:0:1 - - [06/Aug/2020:06:13:37 -0400] "GET /bg-middle.png HTTP/1.1" 200 1918
0:0:0:0:0:0:0:1 - - [06/Aug/2020:06:13:39 -0400] "GET /favicon.ico HTTP/1.1" 200 21630
0:0:0:0:0:0:0:1 - - [06/Aug/2020:06:13:46 -0400] "GET /manager/status HTTP/1.1" 401 2536
0:0:0:0:0:0:0:1 - - [06/Aug/2020:06:13:48 -0400] "GET /manager/status HTTP/1.1" 401 2536
0:0:0:0:0:0:0:1 - - [06/Aug/2020:06:13:51 -0400] "GET /manager/html HTTP/1.1" 401 2536
0:0:0:0:0:0:0:1 - - [06/Aug/2020:06:13:56 -0400] "GET /manager/html HTTP/1.1" 401 2536
0:0:0:0:0:0:0:1 - - [06/Aug/2020:06:13:57 -0400] "GET /manager/html HTTP/1.1" 401 2536
0:0:0:0:0:0:0:1 - - [06/Aug/2020:06:17:36 -0400] "GET / HTTP/1.1" 200 11488
0:0:0:0:0:0:0:1 - - [06/Aug/2020:06:17:45 -0400] "GET /Support_2020_JDK8 HTTP/1.1" 302 -
0:0:0:0:0:0:0:1 - - [06/Aug/2020:06:21:23 -0400] "GET /InfoGoJava12_7_348 HTTP/1.1" 302 -
0:0:0:0:0:0:0:1 - - [06/Aug/2020:06:21:39 -0400] "GET /InfoGoJava12_5_272 HTTP/1.1" 302 -
0:0:0:0:0:0:0:1 - - [06/Aug/2020:06:31:43 -0400] "GET / HTTP/1.1" 200 11488
0:0:0:0:0:0:0:1 - - [06/Aug/2020:06:31:43 -0400] "GET /tomcat.png HTTP/1.1" 200 5103
0:0:0:0:0:0:0:1 - - [06/Aug/2020:06:31:43 -0400] "GET /tomcat.css HTTP/1.1" 200 5931
0:0:0:0:0:0:0:1 - - [06/Aug/2020:06:31:43 -0400] "GET /bg-nav.png HTTP/1.1" 200 1401
0:0:0:0:0:0:0:1 - - [06/Aug/2020:06:31:43 -0400] "GET /asf-logo-wide.svg HTTP/1.1" 200 27530
0:0:0:0:0:0:0:1 - - [06/Aug/2020:06:31:43 -0400] "GET /bg-upper.png HTTP/1.1" 200 3103
0:0:0:0:0:0:0:1 - - [06/Aug/2020:06:31:43 -0400] "GET /bg-button.png HTTP/1.1" 200 713
0:0:0:0:0:0:0:1 - - [06/Aug/2020:06:31:43 -0400] "GET /bg-middle.png HTTP/1.1" 200 1918
0:0:0:0:0:0:0:1 - - [06/Aug/2020:06:31:43 -0400] "GET /favicon.ico HTTP/1.1" 200 21630
0:0:0:0:0:0:0:1 - - [06/Aug/2020:06:31:53 -0400] "GET /Support_2020_JDK8/ HTTP/1.1" 302 145
0:0:0:0:0:0:0:1 - - [06/Aug/2020:06:31:58 -0400] "GET /InfoGoJava12_7_348/ HTTP/1.1" 302 146
0:0:0:0:0:0:0:1 - - [06/Aug/2020:06:31:59 -0400] "GET /InfoGoJava12_5_272/ HTTP/1.1" 302 195
0:0:0:0:0:0:0:1 - - [06/Aug/2020:06:31:59 -0400] "GET /InfoGoJava12_5_272/rdDownload/LicError01517495-089c-42fc-aecb-4ad095da0940.html HTTP/1.1" 200 976
0:0:0:0:0:0:0:1 - - [06/Aug/2020:06:32:00 -0400] "GET /Support_2020_JDK8/rdPage.aspx HTTP/1.1" 200 3509
0:0:0:0:0:0:0:1 - - [06/Aug/2020:06:32:00 -0400] "GET /Support_2020_JDK8/rdTemplate/rdPopup/rdPopupPanel.css HTTP/1.1" 200 1252
0:0:0:0:0:0:0:1 - - [06/Aug/2020:06:32:00 -0400] "GET /Support_2020_JDK8/_Themes/ERTTransit/Theme.css HTTP/1.1" 200 51156
0:0:0:0:0:0:0:1 - - [06/Aug/2020:06:32:00 -0400] "GET /Support_2020_JDK8/rdTemplate/rdInputTextDelimiter/rdInputTextDelimiter.js?v=12.7.465.252 HTTP/1.1" 200 59042
0:0:0:0:0:0:0:1 - - [06/Aug/2020:06:32:00 -0400] "GET /Support_2020_JDK8/rdTemplate/rdYui.min.js?v=12.7.465.252 HTTP/1.1" 200 504314
0:0:0:0:0:0:0:1 - - [06/Aug/2020:06:32:00 -0400] "GET /Support_2020_JDK8/rdTemplate/rdInputTextDelimiter/rdInputTextDelimiter.css HTTP/1.1" 200 1097
0:0:0:0:0:0:0:1 - - [06/Aug/2020:06:32:00 -0400] "GET /Support_2020_JDK8/rdTemplate/rdScript.min.js?v=12.7.465.252 HTTP/1.1" 200 586081
0:0:0:0:0:0:0:1 - - [06/Aug/2020:06:32:00 -0400] "GET /Support_2020_JDK8/rdDownload/rdLocalizationInfo_18DA710B790067C42FD61F3365DE1E0F.js HTTP/1.1" 200 1254
0:0:0:0:0:0:0:1 - - [06/Aug/2020:06:32:00 -0400] "GET /Support_2020_JDK8/rdTemplate/rdChartCanvas.min.js?v=12.7.465.252 HTTP/1.1" 200 361546
0:0:0:0:0:0:0:1 - - [06/Aug/2020:06:32:00 -0400] "GET /Support_2020_JDK8/rdTemplate/rdDebug.png HTTP/1.1" 200 1430
0:0:0:0:0:0:0:1 - - [06/Aug/2020:06:32:00 -0400] "GET /Support_2020_JDK8/rdTemplate/yui3/build/resize-base/assets/skins/sam/resize-base.css HTTP/1.1" 200 2304
0:0:0:0:0:0:0:1 - - [06/Aug/2020:06:32:00 -0400] "GET /Support_2020_JDK8/rdTemplate/yui3/build/widget-base/assets/skins/sam/widget-base.css HTTP/1.1" 200 468
0:0:0:0:0:0:0:1 - - [06/Aug/2020:06:32:00 -0400] "GET /Support_2020_JDK8/rdTemplate/yui3/build/widget-stack/assets/skins/sam/widget-stack.css HTTP/1.1" 200 384
0:0:0:0:0:0:0:1 - - [06/Aug/2020:06:32:00 -0400] "GET /Support_2020_JDK8/rdTemplate/yui3/build/panel/assets/skins/sam/panel.css HTTP/1.1" 200 2071
0:0:0:0:0:0:0:1 - - [06/Aug/2020:06:32:00 -0400] "GET /Support_2020_JDK8/rdTemplate/yui3/build/widget-modality/assets/skins/sam/widget-modality.css HTTP/1.1" 200 332
0:0:0:0:0:0:0:1 - - [06/Aug/2020:06:32:00 -0400] "GET /Support_2020_JDK8/rdTemplate/rdYui/wait-panel.css HTTP/1.1" 200 622
0:0:0:0:0:0:0:1 - - [06/Aug/2020:06:32:00 -0400] "GET /Support_2020_JDK8/rdTemplate/yui3/build/cssbutton/cssbutton-min.css HTTP/1.1" 200 5380
0:0:0:0:0:0:0:1 - - [06/Aug/2020:06:32:00 -0400] "GET /InfoGoJava12_7_348/rdPage.aspx HTTP/1.1" 302 146
0:0:0:0:0:0:0:1 - - [06/Aug/2020:06:32:00 -0400] "GET /InfoGoJava12_7_348/rdLogon.jsp HTTP/1.1" 200 2891
0:0:0:0:0:0:0:1 - - [06/Aug/2020:06:32:01 -0400] "GET /Support_2020_JDK8/rdTemplate/rdWaitAll.gif HTTP/1.1" 200 9974
0:0:0:0:0:0:0:1 - - [06/Aug/2020:06:32:08 -0400] "GET /Support_2020_JDK8/rdPage.aspx HTTP/1.1" 200 3509
0:0:0:0:0:0:0:1 - - [06/Aug/2020:06:32:08 -0400] "GET /Support_2020_JDK8/rdDownload/rdLocalizationInfo_18DA710B790067C42FD61F3365DE1E0F.js HTTP/1.1" 304 -
0:0:0:0:0:0:0:1 - - [06/Aug/2020:06:32:08 -0400] "GET /favicon.ico HTTP/1.1" 200 21630
0:0:0:0:0:0:0:1 - - [06/Aug/2020:06:32:09 -0400] "GET /Support_2020_JDK8/rdTemplate/rdDebugHover.png HTTP/1.1" 200 1535
0:0:0:0:0:0:0:1 - - [06/Aug/2020:06:32:10 -0400] "GET /Support_2020_JDK8/rdDownload/18DA710B790067C42FD61F3365DE1E0F-2e9ea4b99a61451286f7d96f5940a3c4-rdDebug.htm HTTP/1.1" 200 16190
0:0:0:0:0:0:0:1 - - [06/Aug/2020:06:32:46 -0400] "POST /InfoGoJava12_7_348/rdPage.aspx HTTP/1.1" 200 82488
