0:0:0:0:0:0:0:1 - - [12/Apr/2021:15:09:50 -0400] "GET /InfoGoJava12_8_592 HTTP/1.1" 404 769
0:0:0:0:0:0:0:1 - - [12/Apr/2021:15:09:50 -0400] "GET /favicon.ico HTTP/1.1" 200 21630
0:0:0:0:0:0:0:1 - - [12/Apr/2021:15:20:53 -0400] "GET /InfoGoJava12_8_592 HTTP/1.1" 404 769
